%YAML 1.1
%TAG !u! tag:unity3d.com,2011:
--- !u!1 &2960811990388180510
GameObject:
  m_ObjectHideFlags: 0
  m_CorrespondingSourceObject: {fileID: 0}
  m_PrefabInstance: {fileID: 0}
  m_PrefabAsset: {fileID: 0}
  serializedVersion: 6
  m_Component:
  - component: {fileID: 2960811990388180511}
  - component: {fileID: 2960811990388180480}
  m_Layer: 0
  m_Name: PlayerManager
  m_TagString: Untagged
  m_Icon: {fileID: 0}
  m_NavMeshLayer: 0
  m_StaticEditorFlags: 0
  m_IsActive: 1
--- !u!4 &2960811990388180511
Transform:
  m_ObjectHideFlags: 0
  m_CorrespondingSourceObject: {fileID: 0}
  m_PrefabInstance: {fileID: 0}
  m_PrefabAsset: {fileID: 0}
  m_GameObject: {fileID: 2960811990388180510}
  m_LocalRotation: {x: 0, y: 0, z: 0, w: 1}
  m_LocalPosition: {x: 0, y: 0, z: 0}
  m_LocalScale: {x: 1, y: 1, z: 1}
  m_Children: []
  m_Father: {fileID: 0}
  m_RootOrder: 0
  m_LocalEulerAnglesHint: {x: 0, y: 0, z: 0}
--- !u!114 &2960811990388180480
MonoBehaviour:
  m_ObjectHideFlags: 0
  m_CorrespondingSourceObject: {fileID: 0}
  m_PrefabInstance: {fileID: 0}
  m_PrefabAsset: {fileID: 0}
  m_GameObject: {fileID: 2960811990388180510}
  m_Enabled: 1
  m_EditorHideFlags: 0
  m_Script: {fileID: 11500000, guid: 0c84ced5b11f8704dae16f10bb11e669, type: 3}
  m_Name: 
  m_EditorClassIdentifier: 
  playerRB: {fileID: 0}
  iceSprite: {fileID: 0}
  vaporSprite: {fileID: 0}
  waterSprite: {fileID: 0}
  icePhysics: {fileID: 6200000, guid: 0d86bb1a368765248816a545cc2bb0a7, type: 2}
  vaporPhysics: {fileID: 6200000, guid: 9b17f12a07a80f24594aa3ac2ecc0e80, type: 2}
  waterPhysics: {fileID: 6200000, guid: 4d5cd99c5ae4e4d4a90cec6df713a3a8, type: 2}
  speed: 5
  jumpStrength: 200
  vaporDash: 200
  state: 0
  feet: {fileID: 0}
  groundLayers:
    serializedVersion: 2
    m_Bits: 1048576
  waterReset: {fileID: 0}
  thePlayer: {fileID: 0}
  iceGravity: 1
  vaporGravity: 0.2
  waterGravity: 1
  iceMass: 2
  vaporMass: 1
  waterMass: 1.5
